Coffee ratings
…
coffee %>% 
    distinct(harvest_year)

## # A tibble: 47 x 1
##    harvest_year          
##    <chr>                 
##  1 2014                  
##  2 <NA>                  
##  3 2013                  
##  4 2012                  
##  5 March 2010            
##  6 Sept 2009 - April 2010
##  7 May-August            
##  8 2009/2010             
##  9 2015                  
## 10 2011                  
## # ... with 37 more rows
…
